<?xml version="1.0" encoding="UTF-8" standalone="no"?>
<svg xmlns="http://www.w3.org/2000/svg"
     xmlns:xlink="http://www.w3.org/1999/xlink"
     width="610px" height="460px" viewBox="0 0 610 460"
     style="stroke:none">
<title>Graphic window number 100001</title>
<desc>
Creator: GL2PS 1.3.2, (C) 1999-2006 Christophe Geuzaine (geuz@geuz.org)
For: Scilab
CreationDate: Tue Mar 08 08:50:25 2011
</desc>
<defs>
</defs>
<polygon fill="#ffffff" points="0,0 610,0 610,460 0,460"/>
<g>
<polygon fill="#ffffff" points="76.25,402.5 76.25,57.5 76.25,57.5"/>
<polygon fill="#ffffff" points="76.25,402.5 76.25,57.5 76.25,402.5"/>
<polygon fill="#ffffff" points="76.25,402.5 533.75,402.5 533.75,402.5"/>
<polygon fill="#ffffff" points="76.25,402.5 533.75,402.5 76.25,402.5"/>
<polygon fill="#ffffff" points="76.25,402.5 533.75,402.5 533.75,57.5"/>
<polygon fill="#ffffff" points="76.25,402.5 533.75,57.5 76.25,57.5"/>
<polyline fill="none" stroke="#000000" stroke-width="0.5" points="76.25,402.5 76.25,57.5 76.25,57.5 533.75,57.5 533.75,402.5 533.75,402.5 76.25,402.5"/>
<polyline fill="none" stroke="#000000" stroke-width="0.5" points="533.75,57.5 76.25,57.5"/>
<polyline fill="none" stroke="#000000" stroke-width="0.5" points="533.75,57.5 533.75,402.5"/>
<polyline fill="none" stroke="#000000" stroke-width="0.5" points="533.75,57.5 533.75,57.5"/>
<polyline fill="none" stroke="#00ff00" stroke-width="0.5" points="141.607,195.5 174.286,195.5 141.607,195.5 174.286,57.5 141.607,195.5"/>
<polyline fill="none" stroke="#00ff00" stroke-width="0.5" points="174.286,195.5 174.286,57.5 174.286,195.5"/>
<polyline fill="none" stroke="#00ff00" stroke-width="0.5" points="174.286,57.5 206.964,57.5 174.286,57.5"/>
<polyline fill="none" stroke="#00ff00" stroke-width="0.5" points="174.286,195.5 206.964,195.5 174.286,195.5 206.964,57.5 174.286,195.5"/>
<polyline fill="none" stroke="#00ff00" stroke-width="0.5" points="174.286,57.5 206.964,195.5 174.286,57.5"/>
<polyline fill="none" stroke="#00ff00" stroke-width="0.5" points="206.964,195.5 206.964,57.5 206.964,195.5"/>
<polyline fill="none" stroke="#00ff00" stroke-width="0.5" points="206.964,57.5 239.643,57.5 206.964,57.5"/>
<polyline fill="none" stroke="#00ff00" stroke-width="0.5" points="206.964,195.5 239.643,195.5 206.964,195.5 239.643,57.5 206.964,195.5"/>
<polyline fill="none" stroke="#00ff00" stroke-width="0.5" points="206.964,57.5 239.643,195.5 206.964,57.5"/>
<polyline fill="none" stroke="#00ff00" stroke-width="0.5" points="239.643,195.5 239.643,57.5 239.643,195.5"/>
<polyline fill="none" stroke="#00ff00" stroke-width="0.5" points="239.643,57.5 272.321,57.5 239.643,57.5"/>
<polyline fill="none" stroke="#00ff00" stroke-width="0.5" points="239.643,195.5 272.321,195.5 239.643,195.5 272.321,57.5 239.643,195.5"/>
<polyline fill="none" stroke="#00ff00" stroke-width="0.5" points="239.643,57.5 272.321,195.5 239.643,57.5"/>
<polyline fill="none" stroke="#00ff00" stroke-width="0.5" points="272.321,195.5 272.321,57.5 272.321,195.5"/>
<polyline fill="none" stroke="#00ff00" stroke-width="0.5" points="272.321,57.5 305,57.5 272.321,57.5"/>
<polyline fill="none" stroke="#00ff00" stroke-width="0.5" points="272.321,195.5 305,195.5 272.321,195.5 305,57.5 272.321,195.5"/>
<polyline fill="none" stroke="#00ff00" stroke-width="0.5" points="272.321,57.5 305,195.5 272.321,57.5"/>
<polyline fill="none" stroke="#00ff00" stroke-width="0.5" points="305,195.5 305,57.5 305,195.5"/>
<polyline fill="none" stroke="#00ff00" stroke-width="0.5" points="305,57.5 337.679,57.5 305,57.5"/>
<polyline fill="none" stroke="#00ff00" stroke-width="0.5" points="305,195.5 337.679,195.5 305,195.5 337.679,57.5 305,195.5"/>
<polyline fill="none" stroke="#00ff00" stroke-width="0.5" points="305,57.5 337.679,195.5 305,57.5"/>
<polyline fill="none" stroke="#00ff00" stroke-width="0.5" points="337.679,195.5 337.679,57.5 337.679,195.5"/>
<polyline fill="none" stroke="#00ff00" stroke-width="0.5" points="337.679,57.5 370.357,57.5 337.679,57.5"/>
<polyline fill="none" stroke="#00ff00" stroke-width="0.5" points="337.679,195.5 370.357,195.5 337.679,195.5 370.357,57.5 337.679,195.5"/>
<polyline fill="none" stroke="#00ff00" stroke-width="0.5" points="337.679,57.5 370.357,195.5 337.679,57.5"/>
<polyline fill="none" stroke="#00ff00" stroke-width="0.5" points="370.357,195.5 370.357,57.5 370.357,195.5"/>
<polyline fill="none" stroke="#00ff00" stroke-width="0.5" points="370.357,57.5 403.036,57.5 370.357,57.5"/>
<polyline fill="none" stroke="#00ff00" stroke-width="0.5" points="370.357,195.5 403.036,195.5 370.357,195.5 403.036,57.5 370.357,195.5"/>
<polyline fill="none" stroke="#00ff00" stroke-width="0.5" points="370.357,57.5 403.036,195.5 370.357,57.5"/>
<polyline fill="none" stroke="#00ff00" stroke-width="0.5" points="403.036,195.5 403.036,57.5 403.036,195.5"/>
<polyline fill="none" stroke="#00ff00" stroke-width="0.5" points="403.036,57.5 435.714,57.5 403.036,57.5"/>
<polyline fill="none" stroke="#00ff00" stroke-width="0.5" points="403.036,195.5 435.714,195.5 403.036,195.5 435.714,57.5 403.036,195.5"/>
<polyline fill="none" stroke="#00ff00" stroke-width="0.5" points="403.036,57.5 435.714,195.5 403.036,57.5"/>
<polyline fill="none" stroke="#00ff00" stroke-width="0.5" points="435.714,195.5 468.393,195.5 435.714,195.5"/>
<polyline fill="none" stroke="#00ff00" stroke-width="0.5" points="435.714,57.5 468.393,195.5 435.714,57.5"/>
<polyline fill="none" stroke="#00ff00" stroke-width="0.5" points="435.714,195.5 435.714,57.5 435.714,195.5"/>
<polyline fill="none" stroke="#ff0000" stroke-width="0.5" points="141.607,195.5 173.283,242.28 141.607,195.5 181.972,101.335 141.607,195.5"/>
<polyline fill="none" stroke="#ff0000" stroke-width="0.5" points="173.283,242.28 181.972,101.335 173.283,242.28"/>
<polyline fill="none" stroke="#ff0000" stroke-width="0.5" points="181.972,101.335 213.443,141.675 181.972,101.335"/>
<polyline fill="none" stroke="#ff0000" stroke-width="0.5" points="173.283,242.28 205.445,281.255 173.283,242.28 213.443,141.675 173.283,242.28"/>
<polyline fill="none" stroke="#ff0000" stroke-width="0.5" points="181.972,101.335 205.445,281.255 181.972,101.335"/>
<polyline fill="none" stroke="#ff0000" stroke-width="0.5" points="205.445,281.255 213.443,141.675 205.445,281.255"/>
<polyline fill="none" stroke="#ff0000" stroke-width="0.5" points="213.443,141.675 244.317,174.398 213.443,141.675"/>
<polyline fill="none" stroke="#ff0000" stroke-width="0.5" points="205.445,281.255 238.28,314.122 205.445,281.255 244.317,174.398 205.445,281.255"/>
<polyline fill="none" stroke="#ff0000" stroke-width="0.5" points="213.443,141.675 238.28,314.122 213.443,141.675"/>
<polyline fill="none" stroke="#ff0000" stroke-width="0.5" points="238.28,314.122 244.317,174.398 238.28,314.122"/>
<polyline fill="none" stroke="#ff0000" stroke-width="0.5" points="244.317,174.398 274.764,195.871 244.317,174.398"/>
<polyline fill="none" stroke="#ff0000" stroke-width="0.5" points="238.28,314.122 271.534,335.579 238.28,314.122 274.764,195.871 238.28,314.122"/>
<polyline fill="none" stroke="#ff0000" stroke-width="0.5" points="244.317,174.398 271.534,335.579 244.317,174.398"/>
<polyline fill="none" stroke="#ff0000" stroke-width="0.5" points="271.534,335.579 274.764,195.871 271.534,335.579"/>
<polyline fill="none" stroke="#ff0000" stroke-width="0.5" points="274.764,195.871 305,203.323 274.764,195.871"/>
<polyline fill="none" stroke="#ff0000" stroke-width="0.5" points="271.534,335.579 305,343.033 271.534,335.579 305,203.323 271.534,335.579"/>
<polyline fill="none" stroke="#ff0000" stroke-width="0.5" points="274.764,195.871 305,343.033 274.764,195.871"/>
<polyline fill="none" stroke="#ff0000" stroke-width="0.5" points="305,343.033 305,203.323 305,343.033"/>
<polyline fill="none" stroke="#ff0000" stroke-width="0.5" points="305,203.323 335.236,195.871 305,203.323"/>
<polyline fill="none" stroke="#ff0000" stroke-width="0.5" points="305,343.033 338.466,335.579 305,343.033 335.236,195.871 305,343.033"/>
<polyline fill="none" stroke="#ff0000" stroke-width="0.5" points="305,203.323 338.466,335.579 305,203.323"/>
<polyline fill="none" stroke="#ff0000" stroke-width="0.5" points="338.466,335.579 335.236,195.871 338.466,335.579"/>
<polyline fill="none" stroke="#ff0000" stroke-width="0.5" points="335.236,195.871 365.683,174.398 335.236,195.871"/>
<polyline fill="none" stroke="#ff0000" stroke-width="0.5" points="338.466,335.579 371.72,314.122 338.466,335.579 365.683,174.398 338.466,335.579"/>
<polyline fill="none" stroke="#ff0000" stroke-width="0.5" points="335.236,195.871 371.72,314.122 335.236,195.871"/>
<polyline fill="none" stroke="#ff0000" stroke-width="0.5" points="371.72,314.122 365.683,174.398 371.72,314.122"/>
<polyline fill="none" stroke="#ff0000" stroke-width="0.5" points="365.683,174.398 396.557,141.675 365.683,174.398"/>
<polyline fill="none" stroke="#ff0000" stroke-width="0.5" points="371.72,314.122 404.555,281.255 371.72,314.122 396.557,141.675 371.72,314.122"/>
<polyline fill="none" stroke="#ff0000" stroke-width="0.5" points="365.683,174.398 404.555,281.255 365.683,174.398"/>
<polyline fill="none" stroke="#ff0000" stroke-width="0.5" points="404.555,281.255 396.557,141.675 404.555,281.255"/>
<polyline fill="none" stroke="#ff0000" stroke-width="0.5" points="396.557,141.675 428.028,101.335 396.557,141.675"/>
<polyline fill="none" stroke="#ff0000" stroke-width="0.5" points="404.555,281.255 436.717,242.28 404.555,281.255 428.028,101.335 404.555,281.255"/>
<polyline fill="none" stroke="#ff0000" stroke-width="0.5" points="396.557,141.675 436.717,242.28 396.557,141.675"/>
<polyline fill="none" stroke="#ff0000" stroke-width="0.5" points="436.717,242.28 468.393,195.5 436.717,242.28"/>
<polyline fill="none" stroke="#ff0000" stroke-width="0.5" points="428.028,101.335 468.393,195.5 428.028,101.335"/>
<polyline fill="none" stroke="#ff0000" stroke-width="0.5" points="436.717,242.28 428.028,101.335 436.717,242.28"/>
<polyline fill="none" stroke="#000000" stroke-width="0.5" points="76.25,402.5 76.25,57.5"/>
<polyline fill="none" stroke="#000000" stroke-width="0.5" points="76.25,402.5 69.395,402.5"/>
<polyline fill="none" stroke="#000000" stroke-width="0.5" points="76.25,333.5 69.395,333.5"/>
<polyline fill="none" stroke="#000000" stroke-width="0.5" points="76.25,264.5 69.395,264.5"/>
<polyline fill="none" stroke="#000000" stroke-width="0.5" points="76.25,195.5 69.395,195.5"/>
<polyline fill="none" stroke="#000000" stroke-width="0.5" points="76.25,126.5 69.395,126.5"/>
<polyline fill="none" stroke="#000000" stroke-width="0.5" points="76.25,57.5 69.395,57.5"/>
<polyline fill="none" stroke="#000000" stroke-width="0.5" points="76.25,388.7 72.1372,388.7"/>
<polyline fill="none" stroke="#000000" stroke-width="0.5" points="76.25,374.9 72.1372,374.9"/>
<polyline fill="none" stroke="#000000" stroke-width="0.5" points="76.25,361.1 72.1372,361.1"/>
<polyline fill="none" stroke="#000000" stroke-width="0.5" points="76.25,347.3 72.1372,347.3"/>
<polyline fill="none" stroke="#000000" stroke-width="0.5" points="76.25,319.7 72.1372,319.7"/>
<polyline fill="none" stroke="#000000" stroke-width="0.5" points="76.25,305.9 72.1372,305.9"/>
<polyline fill="none" stroke="#000000" stroke-width="0.5" points="76.25,292.1 72.1372,292.1"/>
<polyline fill="none" stroke="#000000" stroke-width="0.5" points="76.25,278.3 72.1372,278.3"/>
<polyline fill="none" stroke="#000000" stroke-width="0.5" points="76.25,250.7 72.1372,250.7"/>
<polyline fill="none" stroke="#000000" stroke-width="0.5" points="76.25,236.9 72.1372,236.9"/>
<polyline fill="none" stroke="#000000" stroke-width="0.5" points="76.25,223.1 72.1372,223.1"/>
<polyline fill="none" stroke="#000000" stroke-width="0.5" points="76.25,209.3 72.1372,209.3"/>
<polyline fill="none" stroke="#000000" stroke-width="0.5" points="76.25,181.7 72.1372,181.7"/>
<polyline fill="none" stroke="#000000" stroke-width="0.5" points="76.25,167.9 72.1372,167.9"/>
<polyline fill="none" stroke="#000000" stroke-width="0.5" points="76.25,154.1 72.1372,154.1"/>
<polyline fill="none" stroke="#000000" stroke-width="0.5" points="76.25,140.3 72.1372,140.3"/>
<polyline fill="none" stroke="#000000" stroke-width="0.5" points="76.25,112.7 72.1372,112.7"/>
<polyline fill="none" stroke="#000000" stroke-width="0.5" points="76.25,98.8999 72.1372,98.8999"/>
<polyline fill="none" stroke="#000000" stroke-width="0.5" points="76.25,85.1001 72.1372,85.1001"/>
<polyline fill="none" stroke="#000000" stroke-width="0.5" points="76.25,71.2998 72.1372,71.2998"/>
<text fill="#000000" style="stroke:none" x="49" y="407" transform="rotate(0, 49, 407)" font-size="10" font-family="SansSerif" font-style="normal" font-weight="normal">-1.5</text>
<text fill="#000000" style="stroke:none" x="49" y="338" transform="rotate(0, 49, 338)" font-size="10" font-family="SansSerif" font-style="normal" font-weight="normal">-1.0</text>
<text fill="#000000" style="stroke:none" x="49" y="269" transform="rotate(0, 49, 269)" font-size="10" font-family="SansSerif" font-style="normal" font-weight="normal">-0.5</text>
<text fill="#000000" style="stroke:none" x="52" y="200" transform="rotate(0, 52, 200)" font-size="10" font-family="SansSerif" font-style="normal" font-weight="normal">0.0</text>
<text fill="#000000" style="stroke:none" x="52" y="131" transform="rotate(0, 52, 131)" font-size="10" font-family="SansSerif" font-style="normal" font-weight="normal">0.5</text>
<text fill="#000000" style="stroke:none" x="53" y="62" transform="rotate(0, 53, 62)" font-size="10" font-family="SansSerif" font-style="normal" font-weight="normal">1.0</text>
<polyline fill="none" stroke="#000000" stroke-width="0.5" points="76.25,402.5 533.75,402.5"/>
<polyline fill="none" stroke="#000000" stroke-width="0.5" points="76.25,402.5 76.25,407.675"/>
<polyline fill="none" stroke="#000000" stroke-width="0.5" points="141.607,402.5 141.607,407.675"/>
<polyline fill="none" stroke="#000000" stroke-width="0.5" points="206.964,402.5 206.964,407.675"/>
<polyline fill="none" stroke="#000000" stroke-width="0.5" points="272.321,402.5 272.321,407.675"/>
<polyline fill="none" stroke="#000000" stroke-width="0.5" points="337.679,402.5 337.679,407.675"/>
<polyline fill="none" stroke="#000000" stroke-width="0.5" points="403.036,402.5 403.036,407.675"/>
<polyline fill="none" stroke="#000000" stroke-width="0.5" points="468.393,402.5 468.393,407.675"/>
<polyline fill="none" stroke="#000000" stroke-width="0.5" points="533.75,402.5 533.75,407.675"/>
<polyline fill="none" stroke="#000000" stroke-width="0.5" points="108.929,402.5 108.929,405.605"/>
<polyline fill="none" stroke="#000000" stroke-width="0.5" points="174.286,402.5 174.286,405.605"/>
<polyline fill="none" stroke="#000000" stroke-width="0.5" points="239.643,402.5 239.643,405.605"/>
<polyline fill="none" stroke="#000000" stroke-width="0.5" points="305,402.5 305,405.605"/>
<polyline fill="none" stroke="#000000" stroke-width="0.5" points="370.357,402.5 370.357,405.605"/>
<polyline fill="none" stroke="#000000" stroke-width="0.5" points="435.714,402.5 435.714,405.605"/>
<polyline fill="none" stroke="#000000" stroke-width="0.5" points="501.071,402.5 501.071,405.605"/>
<text fill="#000000" style="stroke:none" x="71" y="419" transform="rotate(0, 71, 419)" font-size="10" font-family="SansSerif" font-style="normal" font-weight="normal">-2</text>
<text fill="#000000" style="stroke:none" x="138" y="419" transform="rotate(0, 138, 419)" font-size="10" font-family="SansSerif" font-style="normal" font-weight="normal">0</text>
<text fill="#000000" style="stroke:none" x="203" y="419" transform="rotate(0, 203, 419)" font-size="10" font-family="SansSerif" font-style="normal" font-weight="normal">2</text>
<text fill="#000000" style="stroke:none" x="269" y="419" transform="rotate(0, 269, 419)" font-size="10" font-family="SansSerif" font-style="normal" font-weight="normal">4</text>
<text fill="#000000" style="stroke:none" x="334" y="419" transform="rotate(0, 334, 419)" font-size="10" font-family="SansSerif" font-style="normal" font-weight="normal">6</text>
<text fill="#000000" style="stroke:none" x="400" y="419" transform="rotate(0, 400, 419)" font-size="10" font-family="SansSerif" font-style="normal" font-weight="normal">8</text>
<text fill="#000000" style="stroke:none" x="462" y="419" transform="rotate(0, 462, 419)" font-size="10" font-family="SansSerif" font-style="normal" font-weight="normal">10</text>
<text fill="#000000" style="stroke:none" x="528" y="419" transform="rotate(0, 528, 419)" font-size="10" font-family="SansSerif" font-style="normal" font-weight="normal">12</text>
<text fill="#000000" style="stroke:none" x="254" y="48" transform="rotate(0, 254, 48)" font-size="10" font-family="SansSerif" font-style="normal" font-weight="normal">Before optimization</text>
<text fill="#000000" style="stroke:none" x="302" y="430" transform="rotate(0, 302, 430)" font-size="10" font-family="SansSerif" font-style="normal" font-weight="normal">x</text>
<text fill="#000000" style="stroke:none" x="41" y="233" transform="rotate(270, 41, 233)" font-size="10" font-family="SansSerif" font-style="normal" font-weight="normal">y</text>
<polygon fill="#ffffff" points="0,0 0,0.459961 0,0"/>
<polygon fill="#ffffff" points="0,0.459961 0,0 0,0"/>
<polygon fill="#ffffff" points="0,0.459961 0,0 0,0.459961"/>
<polygon fill="#ffffff" points="0,0.459961 0.609863,0.459961 0.609863,0.459961"/>
<polygon fill="#ffffff" points="0,0.459961 0.609863,0.459961 0,0.459961"/>
<polygon fill="#ffffff" points="0.609863,0 0,0.459961 0.609863,0.459961"/>
<polygon fill="#ffffff" points="0.609863,0 0.609863,0.459961 0.609863,0"/>
<polygon fill="#ffffff" points="0,0 0,0.459961 0.609863,0"/>
<polygon fill="#ffffff" points="529.175,63.71 415.575,89.71 415.575,63.71"/>
<polygon fill="#ffffff" points="529.175,89.71 415.575,89.71 529.175,63.71"/>
<polyline fill="none" stroke="#000000" stroke-width="0.5" points="415.575,63.71 529.175,63.71 529.175,89.71 415.575,89.71 415.575,63.71"/>
<polyline fill="none" stroke="#00ff00" stroke-width="0.5" points="420.15,70.21 443.025,70.21"/>
<polyline fill="none" stroke="#ff0000" stroke-width="0.5" points="420.15,83.21 443.025,83.21"/>
<text fill="#000000" style="stroke:none" x="452" y="75" transform="rotate(0, 452, 75)" font-size="10" font-family="SansSerif" font-style="normal" font-weight="normal">before loading</text>
<text fill="#000000" style="stroke:none" x="451" y="88" transform="rotate(0, 451, 88)" font-size="10" font-family="SansSerif" font-style="normal" font-weight="normal">after loading</text>
</g>
</svg>
